[
    { 
"nom":"1.6",
"capacitat":20,
"aireacondicionat":true,
"maquines": [
        {
            "nom":"1-6-1",
            "processador":"i5"
            "grafica":false
        },
{
            "nom":"1-6-2",
            "processador":"i3",
            "grafica":false
        },
{
            "nom":"1-6-3",
            "processador":"i5",
            "grafica":true
        }
            ]
},
{ 
"nom":"C4",
"capacitat":25,
"aireacondicionat":true,
"maquines": [
        {
            "nom":"3-4-1",
            "processador":"i5",
            "grafica":false
        },
{
            "nom":"3-4-2",
            "processador":"i3",
            "grafica":false
        },
{
            "nom":"3-4-3",
            "processador":"i5",
            "grafica":true
        }
            ]
}
]
